{
  "allowlist": [
    "GHSA-29mw-wpgm-hmr9|rete-context-menu-plugin>lodash-es",
    "GHSA-35jh-r3h4-6jhm|rete-context-menu-plugin>lodash-es",
    "GHSA-p6mc-m468-83gw|rete-context-menu-plugin>lodash-es",
    "GHSA-7fh5-64p2-3v2j|vue-loader>@vue/component-compiler-utils>postcss"
  ],
  "low": true,
  "package-manager": "npm"
}
